…
    EVRegData %>% group_by(Model) %>% summarise(n=n())

    ## # A tibble: 104 × 2
    ##    Model                n
    ##    <chr>            <int>
    ##  1 2                  331
    ##  2 3-Series Plug in   179
    ##  3 5-Series Plug in   611
    ##  4 500e               522
    ##  5 7-Series Plug in    44
    ##  6 918 Spyder          13
    ##  7 A3 Plug In         528
    ##  8 A7 Plug In          11
    ##  9 A8 Plug In           3
    ## 10 Accord Plug In      13
    ## # … with 94 more rows

    EVRegData %>% group_by(`ModelYear`) %>% summarise(n=n())

    ## # A tibble: 24 × 2
    ##    ModelYear     n
    ##        <dbl> <int>
    ##  1      1997     6
    ##  2      1999    57
    ##  3      2000   153
    ##  4      2001    64
    ##  5      2002   147
    ##  6      2003    33
    ##  7      2005    66
    ##  8      2006    53
    ##  9      2007    90
    ## 10      2008   207
    ## # … with 14 more rows
…
